jacob;sibbern;gentofte;kommunen;østerbro;2100
søren;sibbern;gentofte;kommunen;østerbro;2100
lars;sibbern;gentofte;kommunen;østerbro;2100
henrik;sibbern;gentofte;kommunen;østerbro;2100
ham;sibbern;gentofte;kommunen;østerbro;2100
hende;sibbern;gentofte;kommunen;østerbro;2100
jørgen;sibbern;gentofte;kommunen;østerbro;2100
manden;sibbern;gentofte;kommunen;østerbro;2100
kvinden;sibbern;gentofte;kommunen;østerbro;2100